
System Online
Wed Aug  8 19:28:21 2018|Access Granted
 |NAME: Kevin T. 
 |ID: 3385743202 
 |TITLE: Customer 
 |Time: Wed Aug  8 19:28:34 2018

|Access Granted
 |NAME: Kevin T. 
 |ID: 3385743202 
 |TITLE: Customer 
 |Time: Wed Aug  8 19:28:40 2018

|Access Granted
 |NAME: Kevin T. 
 |ID: 3385743202 
 |TITLE: Customer 
 |Time: Wed Aug  8 19:28:47 2018


System Online
Wed Aug  8 19:29:28 2018